<svg width="48" height="45" viewBox="0 0 48 45" fill="none" xmlns="http://www.w3.org/2000/svg">
<path d="M42.5862 22.6703L37.3641 14.606C36.9594 13.9809 36.2731 13.6077 35.5285 13.6077H12.4878C11.7443 13.6077 11.0587 13.98 10.6538 14.6034L5.4154 22.6688C4.88009 23.4928 4.96278 24.5809 5.61649 25.3146L22.3661 44.1189C22.7806 44.5843 23.3757 44.8513 23.999 44.8513C23.9991 44.8513 23.999 44.8513 23.9991 44.8513C24.6222 44.8513 25.2176 44.5844 25.6321 44.119L42.3835 25.3135C43.0363 24.5807 43.1197 23.4938 42.5862 22.6703ZM34.4706 15.4826L30.0788 22.2739L25.6843 15.4826H34.4706ZM28.3557 23.0625H19.6422L23.999 16.3295L28.3557 23.0625ZM22.3136 15.4828L17.9313 22.2554L13.5505 15.4828H22.3136ZM11.8169 16.2549L16.2204 23.0625H7.3954L11.8169 16.2549ZM7.7914 24.9375H17.2269L22.2159 41.1314L7.7914 24.9375ZM23.999 40.5509L19.1888 24.9375H28.8092L23.999 40.5509ZM25.782 41.132L30.7712 24.9376H40.2075L25.782 41.132ZM31.8018 23.0625L36.2012 16.2595L40.6064 23.0625H31.8018Z" fill="#619417"/>
<path d="M2.84372 23.0625H0.9375C0.419812 23.0625 0 23.4822 0 24C0 24.5178 0.419812 24.9375 0.9375 24.9375H2.84372C3.36141 24.9375 3.78122 24.5178 3.78122 24C3.78122 23.4822 3.36141 23.0625 2.84372 23.0625Z" fill="#619417"/>
<path d="M47.0625 23.0625H45.1563C44.6386 23.0625 44.2188 23.4822 44.2188 24C44.2188 24.5178 44.6386 24.9375 45.1563 24.9375H47.0625C47.5802 24.9375 48 24.5178 48 24C48 23.4822 47.5802 23.0625 47.0625 23.0625Z" fill="#619417"/>
<path d="M40.9824 7.03434C40.6162 6.66824 40.0228 6.66824 39.6565 7.03434L36.5424 10.1484C36.1763 10.5145 36.1763 11.1081 36.5424 11.4742C36.7256 11.6573 36.9655 11.7488 37.2054 11.7488C37.4454 11.7488 37.6852 11.6572 37.8683 11.4742L40.9824 8.36015C41.3485 7.99406 41.3485 7.40052 40.9824 7.03434Z" fill="#619417"/>
<path d="M11.4982 10.1317L8.38417 7.01755C8.01817 6.65146 7.42473 6.65146 7.05826 7.01755C6.69217 7.38365 6.69217 7.97727 7.05826 8.34336L10.1724 11.4575C10.3554 11.6406 10.5954 11.7321 10.8353 11.7321C11.0752 11.7321 11.3151 11.6405 11.4982 11.4575C11.8643 11.0915 11.8643 10.4977 11.4982 10.1317Z" fill="#619417"/>
<path d="M24.0239 0C23.5062 0 23.0864 0.419719 23.0864 0.9375V7.047C23.0864 7.56478 23.5061 7.9845 24.0239 7.9845C24.5416 7.9845 24.9614 7.56478 24.9614 7.047V0.9375C24.9614 0.419812 24.5416 0 24.0239 0Z" fill="#619417"/>
<path d="M24.6862 9.55563C24.5119 9.38126 24.27 9.28094 24.0234 9.28094C23.7769 9.28094 23.535 9.38126 23.3606 9.55563C23.1862 9.73001 23.0859 9.97188 23.0859 10.2184C23.0859 10.4659 23.1862 10.7069 23.3606 10.8813C23.535 11.0566 23.7769 11.1559 24.0234 11.1559C24.27 11.1559 24.5119 11.0566 24.6862 10.8813C24.8615 10.7069 24.9609 10.465 24.9609 10.2184C24.9609 9.97188 24.8615 9.7301 24.6862 9.55563Z" fill="#619417"/>
</svg>
